/* XPM */
static const char * tiles_xpm[] = {
"80 80 9 1",
" 	c None",
".	c #FFFFFF",
"+	c #000000",
"@	c #FFA800",
"#	c #FF0000",
"$	c #1A008C",
"%	c #E7E7E7",
"&	c #0ECD00",
"*	c #A9A9A9",
"                                                              ..                ",
"                 ..  ...                                    ....      ++++      ",
"                 . . . .                                  ......     +....+     ",
"                 . . ...                                ........    +......+    ",
"                                                      ..........   +..+..+..+   ",
"                 ..  ..  .  . .                     ............   +........+   ",
"                 . . .  ... ...                   ..............   +..++++..+   ",
"                 ..  .  . . ...                 ................    +......+    ",
"                                              .................. ++  +....+  ++ ",
"                                            .................... +.+ ++++++ +.+ ",
"                                          ......................  +.++++++++.+  ",
"                                        ........................   +........+   ",
"                                      ..........................  +.++++++++.+  ",
"                                    ............................ +.+        +.+ ",
"                                  .............................. ++          ++ ",
"                                ................................                ",
"                                ..                                              ",
"                                ....                                            ",
"                        @       ......                                          ",
"                        @       ........                                        ",
"                        @       ..........                                      ",
"           @            @       ............                                    ",
"           @@           @       ..............                                  ",
"  @@@@@@@@@@@@          @       ................                                ",
"           @@           @       ..................               ##  ###        ",
"           @            @       ....................             # # # #        ",
"                        @       ......................           # # ###        ",
"                      @@@@@     ........................                        ",
"                       @@@      ..........................       ##  ##  ##     ",
"                        @       ............................     # # ## #       ",
"                                ..............................   # # #   ##     ",
"                                ................................                ",
"                ++++++++++++++++................................$$$$$$$$$$$$$$$$",
"                ++++++++++++++++..............................  $$$$$$$$$$$$$$$$",
"        @       ++++++++++++++++............................    $$$$$$$$$$$$$$$$",
"       @@@      ++++++++++++++++..........................      $$$$$$$$$$$$$$$$",
"      @@@@@     ++++++++++++++++........................        $$$$$$$$$$$$$$$$",
"        @       ++++++++++++++++......................          $$$$$$$$$$$$$$$$",
"        @       ++++++++++++++++....................            $$$$$$$$$$$$$$$$",
"        @       ++++++++++++++++..................              $$$$$$$$$$$$$$$$",
"        @       ++++++++++++++++................                $$$$$$$$$$$$$$$$",
"        @       ++++++++++++++++..............                  $$$$$$$$$$$$$$$$",
"        @       ++++++++++++++++............                    $$$$$$$$$$$$$$$$",
"        @       ++++++++++++++++..........                      $$$$$$$$$$$$$$$$",
"        @       ++++++++++++++++........                        $$$$$$$$$$$$$$$$",
"        @       ++++++++++++++++......                          $$$$$$$$$$$$$$$$",
"                ++++++++++++++++....                            $$$$$$$$$$$$$$$$",
"                ++++++++++++++++..                              $$$$$$$$$$$$$$$$",
"                ................................................                ",
"                ................  ..............................                ",
"                ................    ............................                ",
"                ................      ..........................                ",
"                ................        ........................                ",
"                ................          ......................                ",
"    @           ................            ....................                ",
"   @@           ................              ..................                ",
"  @@@@@@@@@@@@  ................                ................ ##  ###        ",
"   @@           ................                  .............. # # # #        ",
"    @           ................                    ............ # # ###        ",
"                ................                      ..........                ",
"                ................                        ........ ##  ##  ##  #  ",
"                ................                          ...... # # ## #   ### ",
"                ................                            .... # # #   ##  #  ",
"                ................                              ..                ",
"%%%%%%%%%%%%%%%%                                             &&&                ",
"%**************%                                              &&                ",
"%**************%                                               &                ",
"%**************%                                                                ",
"%**************%                                                                ",
"%**************%                                                                ",
"%**************%                                                                ",
"%******++******%                                                                ",
"%******++******%                 ##  ###                         ### ##  #  # # ",
"%**************%                 # # # #                         # # # # #   #  ",
"%**************%                 # # ###                         ### # # ### #  ",
"%**************%                                                                ",
"%**************%                 ### #  # # ###                  #   # # #  ### ",
"%**************%                 ### #   #  #   &                ### # # #   #  ",
"%**************%                 #   ### #  #   &&               ### ### ### #  ",
"%%%%%%%%%%%%%%%%                                &&&                             "};
